@relation phosphate_mass_during_winter_to_area_of_watershed_ratio_of_reach_instances

@attribute phosphate_mass_during_winter_to_area_of_watershed_ratio_of_reach numeric
@attribute area_of_watershed numeric
@attribute riparian_broadleaf_forest_proportion_area_of_watershed numeric
@attribute high_stream_flow_event_count numeric

@data
0,0,0,0
15000,750,1,10.5
15000,548.60681,0.055255,8.066989
15000,547.20142,0.186815,8.047882
5456.713854,52.3832,0.064775,6.92717
7774.629509,44.6188,0,7.108327
7076.677412,44.4605,0,7.121038
3636.668506,11.1833,0.076925,6.50042
4086.566164,11.1317,0,6.518342
3195.535979,11.0555,0.185185,6.521093
2147.422444,9.7057,0.188935,6.495977
2092.831287,9.65,0.136365,6.48932
2478.547783,8.7313,0.111115,6.504946
2377.363567,8.6068,0.44463,6.525432
2402.777002,8.4123,0.45,6.533095
3141.767682,7.9303,0.45,6.476003
2863.381844,7.8093,0.45,6.485748
2931.494963,7.542,0.45,6.475801
3344.979097,7.3697,0.45,6.593903
2611.862558,7.0373,0.325,6.600374
2551.412692,6.5474,0.14815,6.618461
2634.631023,6.179,0.45,6.602759
4046.263615,32.7868,0.059315,7.457494
6116.238175,32.6283,0.117145,7.461063
15000,494.77759,0,8.277711
15000,494.49249,0,8.280221
15000,494.31009,0.09918,8.280221
