{
  "urn" : "local:amarquez:im.alice.france:france_maize",
  "version" : "0.0.1",
  "adapterType" : "wcs",
  "localPath" : "im.alice.france/resources/france_maize.v0.0.1",
  "geometry" : "S2(1150,733){bbox=[-1.7135400168653994 -1.032894280086316 48.22368463628809 48.65773673949908],proj=EPSG:4326}",
  "projectName" : "im.alice.france",
  "localName" : "france_maize",
  "type" : "NUMBER",
  "resourceTimestamp" : 1598521725390,
  "metadata" : {
    "im:keywords" : "maize, courson, france, alice",
    "dc:comment" : "Distribution of maize cropfield in Courson, case study of ALICE project (France)",
    "im:notes" : "",
    "dc:title" : "Presence of Maize (Courson, France)",
    "dc:url" : "",
    "dc:creator" : "",
    "im:thematic-area" : "Agriculture",
    "dc:originator" : "ALICE project",
    "im:geographic-area" : "Europe/France/Courson",
    "dc:source" : ""
  },
  "parameters" : {
    "wcsIdentifier" : "im-alice-spain__france_maize",
    "serviceUrl" : "https://integratedmodelling.org/dev-geoserver/ows/",
    "band" : "0",
    "nodata" : "0.0",
    "wcsVersion" : "2.0.1"
  },
  "localPaths" : [ ],
  "history" : [ ],
  "notifications" : [ ],
  "attributes" : [ ],
  "spatialExtent" : {
    "east" : -1.032894280086316,
    "west" : -1.7135400168653994,
    "north" : 48.65773673949908,
    "south" : 48.22368463628809,
    "gridResolution" : null,
    "gridUnit" : null
  },
  "dependencies" : null,
  "outputs" : null,
  "exportFormats" : { }
}