{
  "urn" : "local:stefano.balbi:alice.sandbox:bn.estuarine.ssc2",
  "version" : "0.0.1",
  "adapterType" : "weka",
  "localPath" : "im.alice.spain/resources/bn.estuarine.ssc2",
  "geometry" : "T1(1){ttype=INITIALIZATION}S2(730,367){bbox=[-4.583249416269888 -3.2355220108884852 43.08433862829952 43.579093388681514],proj=EPSG:4326,shape=00000000030000000100000005C009E2595D32089A40458ACB9BB12B00C012553F55C1293A40458ACB9BB12B00C012553F55C1293A4045CA1FBB6EDBC4C009E2595D32089A4045CA1FBB6EDBC4C009E2595D32089A40458ACB9BB12B00}",
  "projectName" : "im.alice.spain",
  "localName" : "bn.estuarine.ssc2",
  "type" : "NUMBER",
  "resourceTimestamp" : 1605095368555,
  "metadata" : { },
  "parameters" : {
    "predicted.range" : "[3.0,51.2]",
    "submitNodata" : "true",
    "predictor.volume_of_estuary_site.range" : "[0.0,300.0]",
    "classifier.file" : "classifier2099597798310654531.bin",
    "predictor.water_volume_during_winter.index" : "4",
    "predictor.water_volume_during_winter.range" : "[0.6,45.06]",
    "instances.file.raw" : "rawinstances7761112558307545625.arff",
    "predictor.solid_suspension_mass_during_winter_to_area_of_watershed_ratio.discretizer.options" : "-R 3  -B 3 -Y",
    "predicted.index" : "1",
    "predictor.solid_suspension_mass_during_winter_to_area_of_watershed_ratio.discretizer.cutpoints" : "[500000.0, 1000000.0]",
    "predictor.water_volume_during_winter.discretizer.cutpoints" : "[15.42, 30.240000000000002]",
    "predictor.volume_of_estuary_site.discretizer" : "weka.filters.unsupervised.attribute.Discretize",
    "predictor.volume_of_estuary_site.discretizer.options" : "-R 2  -B 3 -Y",
    "classifier" : "weka.classifiers.bayes.BayesNet",
    "predicted.discretizer.options" : "-R 1  -B 3 -Y",
    "model" : "ml.estuarine.ratio-of-solid-suspension-mass-to-water-volume-within-reach-during-winter-learner",
    "predictor.water_volume_during_winter.discretizer.file" : "d_water_volume_during_winter4546787353510961726.bin",
    "classifier.options" : " -Q weka.classifiers.bayes.net.search.local.K2 -- -P 1 -E weka.classifiers.bayes.net.estimate.SimpleEstimator -- -A 1.0",
    "predictor.water_volume_during_winter.discretizer" : "weka.filters.unsupervised.attribute.Discretize",
    "predicted.discretizer" : "weka.filters.unsupervised.attribute.Discretize",
    "predictor.solid_suspension_mass_during_winter_to_area_of_watershed_ratio.index" : "3",
    "predictor.water_volume_during_winter.discretizer.options" : "-R 4  -B 3 -Y",
    "predicted.name" : "solid_suspension_mass_to_water_volume_ratio_during_winter_of_reach",
    "predictor.solid_suspension_mass_during_winter_to_area_of_watershed_ratio.discretizer.file" : "d_solid_suspension_mass_during_winter_to_area_of_watershed_ratio1614827427000433812.bin",
    "instances.file" : "instances7337210327323755593.arff",
    "predicted.discretizer.file" : "d_solid_suspension_mass_to_water_volume_ratio_during_winter_of_reach497729532343314967.bin",
    "predictor.solid_suspension_mass_during_winter_to_area_of_watershed_ratio.discretizer" : "weka.filters.unsupervised.attribute.Discretize",
    "classifier.probabilistic" : "true",
    "predictor.volume_of_estuary_site.discretizer.file" : "d_volume_of_estuary_site3866320617405532211.bin",
    "wekaVersion" : "3.8.3",
    "predictor.volume_of_estuary_site.discretizer.cutpoints" : "[100.0, 200.0]",
    "predictor.volume_of_estuary_site.index" : "2",
    "predictor.solid_suspension_mass_during_winter_to_area_of_watershed_ratio.range" : "[0.0,1500000.0]",
    "predicted.discretizer.cutpoints" : "[19.066666666666666, 35.13333333333333]"
  },
  "localPaths" : [ "im.alice.spain\\resources/bn.estuarine.ssc2/d_solid_suspension_mass_to_water_volume_ratio_during_winter_of_reach497729532343314967.bin", "im.alice.spain\\resources/bn.estuarine.ssc2/d_volume_of_estuary_site3866320617405532211.bin", "im.alice.spain\\resources/bn.estuarine.ssc2/d_solid_suspension_mass_during_winter_to_area_of_watershed_ratio1614827427000433812.bin", "im.alice.spain\\resources/bn.estuarine.ssc2/d_water_volume_during_winter4546787353510961726.bin", "im.alice.spain\\resources/bn.estuarine.ssc2/instances7337210327323755593.arff", "im.alice.spain\\resources/bn.estuarine.ssc2/rawinstances7761112558307545625.arff", "im.alice.spain\\resources/bn.estuarine.ssc2/classifier2099597798310654531.bin" ],
  "history" : [ ],
  "notifications" : [ ],
  "attributes" : [ ],
  "spatialExtent" : null,
  "dependencies" : [ {
    "name" : "volume_of_estuary_site",
    "type" : "NUMBER",
    "key" : true,
    "optional" : true,
    "exampleValue" : null
  }, {
    "name" : "solid_suspension_mass_during_winter_to_area_of_watershed_ratio",
    "type" : "NUMBER",
    "key" : true,
    "optional" : true,
    "exampleValue" : null
  }, {
    "name" : "water_volume_during_winter",
    "type" : "NUMBER",
    "key" : true,
    "optional" : true,
    "exampleValue" : null
  } ],
  "outputs" : null,
  "exportFormats" : {
    "bif" : "BIF bayesian network (.bif)",
    "xdsl" : "GENIE bayesian network (.xdsl)",
    "arff" : "Training dataset (ARFF)",
    "arff#raw" : "Raw training dataset (ARFF)",
    "model" : "WEKA Classifier (.model)",
    "model#predicted" : "WEKA discretizer for the predicted variable (.model)",
    "model#volume_of_estuary_site" : "WEKA Discretizer for Volume of estuary site (.model)",
    "model#solid_suspension_mass_during_winter_to_area_of_watershed_ratio" : "WEKA Discretizer for Solid suspension mass during winter to area of watershed ratio (.model)",
    "model#water_volume_during_winter" : "WEKA Discretizer for Water volume during winter (.model)"
  }
}