{
  "urn" : "local:stefano.balbi:alice.sandbox:ml.maize.eu.alice",
  "version" : "0.0.1",
  "adapterType" : "weka",
  "localPath" : "im.alice.spain/resources/ml.maize.eu.alice",
  "geometry" : "T1(1){ttype=INITIALIZATION}S2(934,446){bbox=[-13.524169921874998 7.569580078125002 37.12966595484082 45.13167997546054],proj=EPSG:4326,shape=00000000030000000100000005C02B0C5FFFFFFFFF40429098E4DDB914401E47400000000240429098E4DDB914401E474000000002404690DAE3B21210C02B0C5FFFFFFFFF404690DAE3B21210C02B0C5FFFFFFFFF40429098E4DDB914}",
  "projectName" : "im.alice.spain",
  "localName" : "ml.maize.eu.alice",
  "type" : "NUMBER",
  "resourceTimestamp" : 1602004301568,
  "metadata" : { },
  "parameters" : {
    "predictor.slope.discretizer.file" : "d_slope8393009907241345141.bin",
    "predictor.elevation.discretizer.cutpoints" : "[214.4, 440.8, 667.2, 893.6, 1120.0, 1346.4, 1572.8, 1799.2, 2025.6000000000001]",
    "predictor.slope.discretizer.cutpoints" : "[4.52391471862793, 9.04782943725586, 13.57174415588379, 18.09565887451172, 22.61957359313965, 27.14348831176758, 31.667403030395512, 36.19131774902344, 40.71523246765137]",
    "predictor.precipitation_volume.discretizer" : "weka.filters.unsupervised.attribute.Discretize",
    "predictor.slope.index" : "9",
    "submitNodata" : "true",
    "predictor.elevation.range" : "[-12.0,3715.0]",
    "predictor.proportion_of_irrigated_in_maize_yield.range" : "[0.0,1.0]",
    "predictor.elevation.index" : "8",
    "predictor.potential_evapotranspired_water_volume.discretizer" : "weka.filters.unsupervised.attribute.Discretize",
    "predictor.type_of_soil_texture.range" : "[4.9E-324,1.7976931348623157E308]",
    "predictor.elevation.discretizer" : "weka.filters.unsupervised.attribute.Discretize",
    "key.type_of_soil_texture" : "key_type_of_soil_texture3990644066750370922.dat",
    "predictor.elevation.discretizer.options" : "-R 8 -Y",
    "predictor.soil_depth.discretizer" : "weka.filters.unsupervised.attribute.Discretize",
    "predictor.potential_evapotranspired_water_volume.discretizer.options" : "-R 4 -Y",
    "predictor.precipitation_volume.discretizer.file" : "d_precipitation_volume1465129012851294420.bin",
    "classifier" : "weka.classifiers.bayes.BayesNet",
    "model" : "ml.maize.theoretical-maize-yield-learner",
    "predictor.slope.range" : "[0.0,53.13262176513672]",
    "predictor.soil_depth.range" : "[0.0,8305.0]",
    "predictor.soil_depth.discretizer.file" : "d_soil_depth1368284471942849047.bin",
    "classifier.options" : " -Q weka.classifiers.bayes.net.search.local.K2 -- -P 10 -E weka.classifiers.bayes.net.estimate.SimpleEstimator -- -A 1.0",
    "predicted.name" : "maize_predicted_theoretical_yield",
    "instances.file" : "instances4372399608827171832.arff",
    "predictor.atmospheric_temperature.discretizer.cutpoints" : "[5.372499895095825, 6.8283332824707035, 8.28416666984558, 9.74000005722046, 11.195833444595337, 12.651666831970214, 14.107500219345093, 15.56333360671997, 17.019166994094846]",
    "predicted.discretizer.file" : "d_maize_predicted_theoretical_yield6401927671525521706.bin",
    "predictor.proportion_of_irrigated_in_maize_yield.index" : "2",
    "predictor.solar_radiation.discretizer.options" : "-R 5 -Y",
    "classifier.probabilistic" : "true",
    "predictor.atmospheric_temperature.discretizer.file" : "d_atmospheric_temperature8231888533329769588.bin",
    "predictor.solar_radiation.index" : "5",
    "predictor.slope.discretizer" : "weka.filters.unsupervised.attribute.Discretize",
    "predictor.elevation.discretizer.file" : "d_elevation7722302379989505921.bin",
    "predictor.atmospheric_temperature.discretizer.options" : "-R 7 -Y",
    "predictor.soil_depth.index" : "11",
    "predicted.range" : "[1496.5271352690124,28606.479894748627]",
    "predictor.atmospheric_temperature.discretizer" : "weka.filters.unsupervised.attribute.Discretize",
    "predictor.aspect.discretizer.file" : "d_aspect3223863984333102865.bin",
    "predictor.potential_evapotranspired_water_volume.discretizer.file" : "d_potential_evapotranspired_water_volume3098823808376139483.bin",
    "predictor.proportion_of_irrigated_in_maize_yield.discretizer.file" : "d_proportion_of_irrigated_in_maize_yield465866466604788512.bin",
    "predictor.aspect.range" : "[0.0,359.8682861328125]",
    "classifier.file" : "classifier6931234051410866660.bin",
    "predictor.solar_radiation.discretizer.file" : "d_solar_radiation1469463226708280784.bin",
    "predictor.aspect.index" : "10",
    "instances.file.raw" : "rawinstances3049725609748544591.arff",
    "predictor.solar_radiation.discretizer.cutpoints" : "[12646.5, 13217.0, 13787.5, 14358.0, 14928.5, 15499.0, 16069.5, 16640.0, 17210.5]",
    "predictor.atmospheric_temperature.range" : "[-7.616666793823242,18.475000381469727]",
    "predictor.proportion_of_fertilized_in_maize_yield.index" : "3",
    "predictor.soil_depth.discretizer.cutpoints" : "[830.5, 1661.0, 2491.5, 3322.0, 4152.5, 4983.0, 5813.5, 6644.0, 7474.5]",
    "predicted.index" : "1",
    "predicted.discretizer.options" : "-R 1  -B 10 -F -Y",
    "predictor.proportion_of_fertilized_in_maize_yield.discretizer.file" : "d_proportion_of_fertilized_in_maize_yield5290015127877139678.bin",
    "predictor.proportion_of_irrigated_in_maize_yield.discretizer.cutpoints" : "[0.1, 0.2, 0.30000000000000004, 0.4, 0.5, 0.6000000000000001, 0.7000000000000001, 0.8, 0.9]",
    "predictor.precipitation_volume.index" : "6",
    "predicted.discretizer" : "weka.filters.unsupervised.attribute.Discretize",
    "predictor.solar_radiation.range" : "[11947.0,65535.0]",
    "predictor.proportion_of_irrigated_in_maize_yield.discretizer.options" : "-R 2 -Y",
    "predictor.proportion_of_fertilized_in_maize_yield.range" : "[0.0,1.0]",
    "predictor.potential_evapotranspired_water_volume.discretizer.cutpoints" : "[138.4, 276.8, 415.20000000000005, 553.6, 692.0, 830.4000000000001, 968.8000000000001, 1107.2, 1245.6000000000001]",
    "predictor.atmospheric_temperature.index" : "7",
    "predictor.potential_evapotranspired_water_volume.range" : "[0.0,1384.0]",
    "predictor.aspect.discretizer.options" : "-R 10 -Y",
    "predictor.aspect.discretizer.cutpoints" : "[35.98133544921875, 71.9626708984375, 107.94400634765624, 143.925341796875, 179.90667724609375, 215.88801269531248, 251.86934814453122, 287.85068359375, 323.83201904296874]",
    "predictor.type_of_soil_texture.index" : "12",
    "predictor.proportion_of_fertilized_in_maize_yield.discretizer.options" : "-R 3 -Y",
    "predictor.soil_depth.discretizer.options" : "-R 11 -Y",
    "predictor.potential_evapotranspired_water_volume.index" : "4",
    "predictor.aspect.discretizer" : "weka.filters.unsupervised.attribute.Discretize",
    "predictor.slope.discretizer.options" : "-R 9 -Y",
    "wekaVersion" : "3.8.3",
    "predictor.proportion_of_fertilized_in_maize_yield.discretizer.cutpoints" : "[0.1, 0.2, 0.30000000000000004, 0.4, 0.5, 0.6000000000000001, 0.7000000000000001, 0.8, 0.9]",
    "predictor.proportion_of_irrigated_in_maize_yield.discretizer" : "weka.filters.unsupervised.attribute.Discretize",
    "predictor.solar_radiation.discretizer" : "weka.filters.unsupervised.attribute.Discretize",
    "predictor.precipitation_volume.discretizer.options" : "-R 6 -Y",
    "predictor.proportion_of_fertilized_in_maize_yield.discretizer" : "weka.filters.unsupervised.attribute.Discretize",
    "predictor.precipitation_volume.discretizer.cutpoints" : "[418.9, 597.8, 776.7, 955.6, 1134.5, 1313.4, 1492.3, 1671.2, 1850.1000000000001]",
    "predicted.discretizer.cutpoints" : "[2298.9000244140625, 6117.699951171875, 8766.9501953125, 10712.44970703125, 11746.05029296875, 12469.849609375, 13164.099609375, 14145.650390625, 16137.19970703125]",
    "predictor.precipitation_volume.range" : "[234.0,2029.0]"
  },
  "localPaths" : [ "im.alice.spain\\resources/ml.maize.eu.alice/d_maize_predicted_theoretical_yield6401927671525521706.bin", "im.alice.spain\\resources/ml.maize.eu.alice/d_proportion_of_irrigated_in_maize_yield465866466604788512.bin", "im.alice.spain\\resources/ml.maize.eu.alice/d_proportion_of_fertilized_in_maize_yield5290015127877139678.bin", "im.alice.spain\\resources/ml.maize.eu.alice/d_potential_evapotranspired_water_volume3098823808376139483.bin", "im.alice.spain\\resources/ml.maize.eu.alice/d_solar_radiation1469463226708280784.bin", "im.alice.spain\\resources/ml.maize.eu.alice/d_precipitation_volume1465129012851294420.bin", "im.alice.spain\\resources/ml.maize.eu.alice/d_atmospheric_temperature8231888533329769588.bin", "im.alice.spain\\resources/ml.maize.eu.alice/d_elevation7722302379989505921.bin", "im.alice.spain\\resources/ml.maize.eu.alice/d_slope8393009907241345141.bin", "im.alice.spain\\resources/ml.maize.eu.alice/d_aspect3223863984333102865.bin", "im.alice.spain\\resources/ml.maize.eu.alice/d_soil_depth1368284471942849047.bin", "im.alice.spain\\resources/ml.maize.eu.alice/key_type_of_soil_texture3990644066750370922.dat", "im.alice.spain\\resources/ml.maize.eu.alice/instances4372399608827171832.arff", "im.alice.spain\\resources/ml.maize.eu.alice/rawinstances3049725609748544591.arff", "im.alice.spain\\resources/ml.maize.eu.alice/classifier6931234051410866660.bin" ],
  "history" : [ ],
  "notifications" : [ ],
  "attributes" : [ ],
  "spatialExtent" : null,
  "dependencies" : [ {
    "name" : "proportion_of_irrigated_in_maize_yield",
    "type" : "NUMBER",
    "key" : true,
    "optional" : true,
    "exampleValue" : null
  }, {
    "name" : "proportion_of_fertilized_in_maize_yield",
    "type" : "NUMBER",
    "key" : true,
    "optional" : true,
    "exampleValue" : null
  }, {
    "name" : "potential_evapotranspired_water_volume",
    "type" : "NUMBER",
    "key" : true,
    "optional" : true,
    "exampleValue" : null
  }, {
    "name" : "solar_radiation",
    "type" : "NUMBER",
    "key" : true,
    "optional" : true,
    "exampleValue" : null
  }, {
    "name" : "precipitation_volume",
    "type" : "NUMBER",
    "key" : true,
    "optional" : true,
    "exampleValue" : null
  }, {
    "name" : "atmospheric_temperature",
    "type" : "NUMBER",
    "key" : true,
    "optional" : true,
    "exampleValue" : null
  }, {
    "name" : "elevation",
    "type" : "NUMBER",
    "key" : true,
    "optional" : true,
    "exampleValue" : null
  }, {
    "name" : "slope",
    "type" : "NUMBER",
    "key" : true,
    "optional" : true,
    "exampleValue" : null
  }, {
    "name" : "aspect",
    "type" : "NUMBER",
    "key" : true,
    "optional" : true,
    "exampleValue" : null
  }, {
    "name" : "soil_depth",
    "type" : "NUMBER",
    "key" : true,
    "optional" : true,
    "exampleValue" : null
  }, {
    "name" : "type_of_soil_texture",
    "type" : "CONCEPT",
    "key" : true,
    "optional" : true,
    "exampleValue" : null
  } ],
  "outputs" : null,
  "exportFormats" : {
    "bif" : "BIF bayesian network (.bif)",
    "xdsl" : "GENIE bayesian network (.xdsl)",
    "arff" : "Training dataset (ARFF)",
    "arff#raw" : "Raw training dataset (ARFF)",
    "model" : "WEKA Classifier (.model)",
    "model#predicted" : "WEKA discretizer for the predicted variable (.model)",
    "model#proportion_of_irrigated_in_maize_yield" : "WEKA Discretizer for Proportion of irrigated in maize yield (.model)",
    "model#proportion_of_fertilized_in_maize_yield" : "WEKA Discretizer for Proportion of fertilized in maize yield (.model)",
    "model#potential_evapotranspired_water_volume" : "WEKA Discretizer for Potential evapotranspired water volume (.model)",
    "model#solar_radiation" : "WEKA Discretizer for Solar radiation (.model)",
    "model#precipitation_volume" : "WEKA Discretizer for Precipitation volume (.model)",
    "model#atmospheric_temperature" : "WEKA Discretizer for Atmospheric temperature (.model)",
    "model#elevation" : "WEKA Discretizer for Elevation (.model)",
    "model#slope" : "WEKA Discretizer for Slope (.model)",
    "model#aspect" : "WEKA Discretizer for Aspect (.model)",
    "model#soil_depth" : "WEKA Discretizer for Soil depth (.model)"
  }
}