{
  "urn" : "local:amarquez:im.alice.france:france_precipitation_wetseason_2010_2012",
  "version" : "0.0.1",
  "adapterType" : "raster",
  "localPath" : "im.alice.france/resources/france_precipitation_wetseason_2010_2012.v0.0.1",
  "geometry" : "S2(79,54){bbox=[-1.805 -1.0150000000000001 48.195 48.73500000000001],proj=EPSG:4326}",
  "projectName" : "im.alice.france",
  "localName" : "france_precipitation_wetseason_2010_2012.tif",
  "type" : "NUMBER",
  "resourceTimestamp" : 1605607551657,
  "metadata" : { },
  "parameters" : {
    "nodata" : "-3.4E38"
  },
  "localPaths" : "im.alice.france/resources/france_precipitation_wetseason_2010_2012.v0.0.1/france_precipitation_wetseason_2010_2012.tif",
  "history" : [ ],
  "notifications" : [ ],
  "attributes" : [ ],
  "spatialExtent" : {
    "east" : -1.0150000000000001,
    "west" : -1.805,
    "north" : 48.73500000000001,
    "south" : 48.195,
    "gridResolution" : null,
    "gridUnit" : null
  },
  "dependencies" : null,
  "outputs" : null,
  "exportFormats" : {
    "tiff" : "GeoTiff"
  }
}