{
  "urn" : "local:amarquez:im.alice.france:france_mean_max_temperature_cclm_85_2045_2055",
  "version" : "0.0.1",
  "adapterType" : "wcs",
  "localPath" : "im.alice.france/resources/france_mean_max_temperature_cclm_85_2045_2055.v0.0.1",
  "geometry" : "t1{tend=2713824000000,tstart=2366841600000,ttype=physical}S2(69,51){bbox=[-1.7149999999999999 -1.0150000000000001 48.205 48.725],proj=EPSG:4326}",
  "projectName" : "im.alice.france",
  "localName" : "france_mean_max_temperature_cclm_85_2045_2055",
  "type" : "NUMBER",
  "resourceTimestamp" : 1601310323853,
  "metadata" : {
    "im:keywords" : "",
    "dc:comment" : "",
    "im:notes" : "",
    "dc:title" : "",
    "dc:url" : "",
    "dc:creator" : "",
    "im:thematic-area" : "",
    "dc:originator" : "",
    "im:geographic-area" : "",
    "dc:source" : ""
  },
  "parameters" : {
    "wcsIdentifier" : "im-alice-spain__france_mean_max_temperature_cclm_85_2045_2055",
    "serviceUrl" : "https://integratedmodelling.org/dev-geoserver/ows/",
    "band" : "0",
    "nodata" : "-3.4E38",
    "wcsVersion" : "2.0.1"
  },
  "localPaths" : [ ],
  "history" : [ ],
  "notifications" : [ ],
  "attributes" : [ ],
  "spatialExtent" : {
    "east" : -1.0150000000000001,
    "west" : -1.7149999999999999,
    "north" : 48.725,
    "south" : 48.205,
    "gridResolution" : null,
    "gridUnit" : null
  },
  "dependencies" : null,
  "outputs" : null,
  "exportFormats" : { }
}