{
  "urn" : "local:amarquez:im.alice.france:fr_landcover_2050_bau_50m_wgs84_cattle",
  "version" : "0.0.1",
  "adapterType" : "raster",
  "localPath" : "im.alice.france/resources/fr_landcover_2050_bau_50m_wgs84_cattle.v0.0.1",
  "geometry" : "S2(1362,873){bbox=[-1.757559443 -0.991163483 48.194681508 48.685917685],proj=EPSG:4326}",
  "projectName" : "im.alice.france",
  "localName" : "fr_landcover_2050_bau_50m_wgs84_cattle.tif",
  "type" : "NUMBER",
  "resourceTimestamp" : 1605781026126,
  "metadata" : { },
  "parameters" : {
    "nodata" : "-3.4E38"
  },
  "localPaths" : "im.alice.france/resources/fr_landcover_2050_bau_50m_wgs84_cattle.v0.0.1/fr_landcover_2050_bau_50m_wgs84_cattle.tif",
  "history" : [ ],
  "notifications" : [ ],
  "attributes" : [ ],
  "spatialExtent" : {
    "east" : -0.991163483,
    "west" : -1.757559443,
    "north" : 48.685917685,
    "south" : 48.194681508,
    "gridResolution" : null,
    "gridUnit" : null
  },
  "dependencies" : null,
  "outputs" : null,
  "exportFormats" : {
    "tiff" : "GeoTiff"
  }
}