{
  "urn" : "local:amarquez:im.alice.france:futureBAU_gepcum",
  "version" : "0.0.1",
  "adapterType" : "raster",
  "localPath" : "im.alice.france/resources/futureBAU_gepcum.v0.0.1",
  "geometry" : "S2(1376,844){bbox=[-1.6670302250063194 -1.0487075594084283 48.251320807702484 48.63058267526398],proj=EPSG:4326}",
  "projectName" : "im.alice.france",
  "localName" : "futureBAU_gepcum.tif",
  "type" : "NUMBER",
  "resourceTimestamp" : 1605872581397,
  "metadata" : { },
  "parameters" : {
    "nodata" : "-3.4028234663852886E38"
  },
  "localPaths" : [ "im.alice.france/resources/futureBAU_gepcum.v0.0.1/futureBAU_gepcum.tfw", "im.alice.france/resources/futureBAU_gepcum.v0.0.1/futureBAU_gepcum.tif.ovr", "im.alice.france/resources/futureBAU_gepcum.v0.0.1/futureBAU_gepcum.tif.aux.xml", "im.alice.france/resources/futureBAU_gepcum.v0.0.1/futureBAU_gepcum.tif" ],
  "history" : [ ],
  "notifications" : [ ],
  "attributes" : [ ],
  "spatialExtent" : {
    "east" : -1.0487075594084283,
    "west" : -1.6670302250063194,
    "north" : 48.63058267526398,
    "south" : 48.251320807702484,
    "gridResolution" : null,
    "gridUnit" : null
  },
  "dependencies" : null,
  "outputs" : null,
  "exportFormats" : {
    "tiff" : "GeoTiff"
  }
}