{
  "urn" : "local:amarquez:im.alice.france:france_mean_temperature_2010_2012",
  "version" : "0.0.1",
  "adapterType" : "wcs",
  "localPath" : "im.alice.france/resources/france_mean_temperature_2010_2012.v0.0.1",
  "geometry" : "t1{tend=1356912000000,tstart=1262304000000,ttype=physical}S2(78,53){bbox=[-1.805 -1.0150000000000001 48.195 48.73500000000001],proj=EPSG:4326}",
  "projectName" : "im.alice.france",
  "localName" : "france_mean_temperature_2010_2012",
  "type" : "NUMBER",
  "resourceTimestamp" : 1601310914328,
  "metadata" : {
    "im:keywords" : "",
    "dc:comment" : "",
    "im:notes" : "",
    "dc:title" : "",
    "dc:url" : "",
    "dc:creator" : "",
    "im:thematic-area" : "",
    "dc:originator" : "",
    "im:geographic-area" : "",
    "dc:source" : ""
  },
  "parameters" : {
    "wcsIdentifier" : "im-alice-spain__france_mean_temperature_2010_2012",
    "serviceUrl" : "https://integratedmodelling.org/dev-geoserver/ows/",
    "band" : "0",
    "nodata" : "-3.4E38",
    "wcsVersion" : "2.0.1"
  },
  "localPaths" : [ ],
  "history" : [ ],
  "notifications" : [ ],
  "attributes" : [ ],
  "spatialExtent" : {
    "east" : -1.0150000000000001,
    "west" : -1.805,
    "north" : 48.73500000000001,
    "south" : 48.195,
    "gridResolution" : null,
    "gridUnit" : null
  },
  "dependencies" : null,
  "outputs" : null,
  "exportFormats" : { }
}