@relation highly_sensitive_ept_proportion_macro_invertebrate_individual_count_of_reach_instances-weka.filters.unsupervised.attribute.Discretize-Y-B3-M-1.0-R1-precision6-weka.filters.unsupervised.attribute.Discretize-Y-B3-M-1.0-R2-precision6-weka.filters.unsupervised.attribute.Discretize-Y-B3-M-1.0-R3-precision6-weka.filters.unsupervised.attribute.Discretize-Y-B3-M-1.0-R4-precision6-weka.filters.unsupervised.attribute.Discretize-Y-B3-M-1.0-R5-precision6

@attribute highly_sensitive_ept_proportion_macro_invertebrate_individual_count_of_reach {'\'B1of3\'','\'B2of3\'','\'B3of3\''}
@attribute nitrate_mass_to_water_volume_ratio {'\'B1of3\'','\'B2of3\'','\'B3of3\''}
@attribute solid_suspension_mass_to_water_volume_ratio {'\'B1of3\'','\'B2of3\'','\'B3of3\''}
@attribute water_temperature_during_summer {'\'B1of3\'','\'B2of3\'','\'B3of3\''}
@attribute riparian_broadleaf_forest_proportion_area_of_watershed {'\'B1of3\'','\'B2of3\'','\'B3of3\''}

@data
'\'B2of3\'','\'B1of3\'','\'B1of3\'','\'B2of3\'','\'B1of3\''
'\'B2of3\'','\'B1of3\'','\'B3of3\'','\'B2of3\'','\'B1of3\''
'\'B2of3\'','\'B1of3\'','\'B1of3\'','\'B2of3\'','\'B2of3\''
'\'B2of3\'','\'B1of3\'','\'B1of3\'','\'B2of3\'','\'B1of3\''
'\'B2of3\'','\'B1of3\'','\'B1of3\'','\'B2of3\'','\'B1of3\''
'\'B2of3\'','\'B1of3\'','\'B1of3\'','\'B2of3\'','\'B1of3\''
'\'B2of3\'','\'B1of3\'','\'B1of3\'','\'B2of3\'','\'B1of3\''
'\'B3of3\'','\'B1of3\'','\'B2of3\'','\'B2of3\'','\'B1of3\''
'\'B3of3\'','\'B1of3\'','\'B2of3\'','\'B1of3\'','\'B3of3\''
'\'B3of3\'','\'B1of3\'','\'B1of3\'','\'B2of3\'','\'B1of3\''
'\'B2of3\'','\'B1of3\'','\'B1of3\'','\'B2of3\'','\'B3of3\''
'\'B3of3\'','\'B1of3\'','\'B1of3\'','\'B3of3\'','\'B2of3\''
'\'B3of3\'','\'B1of3\'','\'B1of3\'','\'B3of3\'','\'B1of3\''
'\'B2of3\'','\'B1of3\'','\'B1of3\'','\'B1of3\'','\'B1of3\''
'\'B3of3\'','\'B1of3\'','\'B1of3\'','\'B1of3\'','\'B1of3\''
'\'B2of3\'','\'B1of3\'','\'B1of3\'','\'B2of3\'','\'B3of3\''
'\'B2of3\'','\'B1of3\'','\'B1of3\'','\'B2of3\'','\'B3of3\''
'\'B2of3\'','\'B1of3\'','\'B2of3\'','\'B2of3\'','\'B2of3\''
'\'B2of3\'','\'B1of3\'','\'B1of3\'','\'B2of3\'','\'B2of3\''
'\'B3of3\'','\'B1of3\'','\'B1of3\'','\'B2of3\'','\'B3of3\''
'\'B2of3\'','\'B1of3\'','\'B1of3\'','\'B2of3\'','\'B3of3\''
'\'B2of3\'','\'B1of3\'','\'B3of3\'','\'B2of3\'','\'B2of3\''
'\'B2of3\'','\'B1of3\'','\'B1of3\'','\'B2of3\'','\'B1of3\''
'\'B2of3\'','\'B1of3\'','\'B2of3\'','\'B2of3\'','\'B3of3\''
'\'B3of3\'','\'B1of3\'','\'B1of3\'','\'B2of3\'','\'B2of3\''
'\'B3of3\'','\'B1of3\'','\'B1of3\'','\'B2of3\'','\'B3of3\''
'\'B2of3\'','\'B1of3\'','\'B1of3\'','\'B2of3\'','\'B2of3\''
'\'B2of3\'','\'B1of3\'','\'B2of3\'','\'B2of3\'','\'B2of3\''
'\'B2of3\'','\'B1of3\'','\'B1of3\'','\'B2of3\'','\'B1of3\''
'\'B3of3\'','\'B1of3\'','\'B1of3\'','\'B2of3\'','\'B1of3\''
'\'B2of3\'','\'B1of3\'','\'B1of3\'','\'B2of3\'','\'B1of3\''
'\'B3of3\'','\'B1of3\'','\'B2of3\'','\'B2of3\'','\'B3of3\''
'\'B3of3\'','\'B1of3\'','\'B2of3\'','\'B2of3\'','\'B1of3\''
'\'B1of3\'','\'B1of3\'','\'B1of3\'','\'B2of3\'','\'B1of3\''
'\'B3of3\'','\'B1of3\'','\'B1of3\'','\'B2of3\'','\'B3of3\''
'\'B2of3\'','\'B1of3\'','\'B2of3\'','\'B2of3\'','\'B2of3\''
'\'B2of3\'','\'B1of3\'','\'B2of3\'','\'B2of3\'','\'B1of3\''
'\'B2of3\'','\'B1of3\'','\'B3of3\'','\'B2of3\'','\'B3of3\''
'\'B2of3\'','\'B1of3\'','\'B2of3\'','\'B2of3\'','\'B2of3\''
'\'B2of3\'','\'B1of3\'','\'B1of3\'','\'B2of3\'','\'B2of3\''
'\'B1of3\'','\'B1of3\'','\'B2of3\'','\'B2of3\'','\'B1of3\''
'\'B2of3\'','\'B1of3\'','\'B3of3\'','\'B2of3\'','\'B1of3\''
'\'B3of3\'','\'B1of3\'','\'B2of3\'','\'B2of3\'','\'B1of3\''
'\'B3of3\'','\'B1of3\'','\'B2of3\'','\'B2of3\'','\'B1of3\''
'\'B2of3\'','\'B1of3\'','\'B3of3\'','\'B2of3\'','\'B3of3\''
'\'B2of3\'','\'B1of3\'','\'B2of3\'','\'B2of3\'','\'B1of3\''
'\'B1of3\'','\'B1of3\'','\'B2of3\'','\'B3of3\'','\'B1of3\''
'\'B2of3\'','\'B1of3\'','\'B2of3\'','\'B2of3\'','\'B1of3\''
'\'B2of3\'','\'B1of3\'','\'B3of3\'','\'B2of3\'','\'B1of3\''
'\'B2of3\'','\'B1of3\'','\'B3of3\'','\'B2of3\'','\'B1of3\''
'\'B3of3\'','\'B1of3\'','\'B2of3\'','\'B2of3\'','\'B2of3\''
'\'B3of3\'','\'B1of3\'','\'B2of3\'','\'B2of3\'','\'B1of3\''
'\'B2of3\'','\'B1of3\'','\'B2of3\'','\'B1of3\'','\'B1of3\''
'\'B2of3\'','\'B1of3\'','\'B2of3\'','\'B1of3\'','\'B1of3\''
'\'B3of3\'','\'B1of3\'','\'B2of3\'','\'B2of3\'','\'B2of3\''
'\'B1of3\'','\'B1of3\'','\'B1of3\'','\'B3of3\'','\'B1of3\''
'\'B2of3\'','\'B1of3\'','\'B1of3\'','\'B2of3\'','\'B2of3\''
'\'B1of3\'','\'B1of3\'','\'B1of3\'','\'B2of3\'','\'B2of3\''
'\'B2of3\'','\'B1of3\'','\'B1of3\'','\'B3of3\'','\'B2of3\''
'\'B2of3\'','\'B1of3\'','\'B1of3\'','\'B2of3\'','\'B2of3\''
'\'B1of3\'','\'B1of3\'','\'B1of3\'','\'B2of3\'','\'B1of3\''
'\'B1of3\'','\'B1of3\'','\'B1of3\'','\'B2of3\'','\'B1of3\''
'\'B1of3\'','\'B1of3\'','\'B1of3\'','\'B3of3\'','\'B2of3\''
'\'B1of3\'','\'B1of3\'','\'B1of3\'','\'B2of3\'','\'B2of3\''
'\'B2of3\'','\'B1of3\'','\'B1of3\'','\'B3of3\'','\'B2of3\''
'\'B2of3\'','\'B1of3\'','\'B1of3\'','\'B2of3\'','\'B2of3\''
'\'B2of3\'','\'B1of3\'','\'B1of3\'','\'B2of3\'','\'B1of3\''
'\'B1of3\'','\'B1of3\'','\'B1of3\'','\'B3of3\'','\'B1of3\''
'\'B1of3\'','\'B1of3\'','\'B1of3\'','\'B2of3\'','\'B2of3\''
'\'B2of3\'','\'B1of3\'','\'B1of3\'','\'B2of3\'','\'B2of3\''
'\'B2of3\'','\'B1of3\'','\'B1of3\'','\'B3of3\'','\'B2of3\''
'\'B2of3\'','\'B1of3\'','\'B1of3\'','\'B2of3\'','\'B2of3\''
'\'B2of3\'','\'B1of3\'','\'B1of3\'','\'B3of3\'','\'B1of3\''
'\'B2of3\'','\'B1of3\'','\'B1of3\'','\'B3of3\'','\'B1of3\''
'\'B1of3\'','\'B1of3\'','\'B1of3\'','\'B1of3\'','\'B1of3\''
'\'B2of3\'','\'B1of3\'','\'B1of3\'','\'B2of3\'','\'B2of3\''
'\'B2of3\'','\'B1of3\'','\'B1of3\'','\'B3of3\'','\'B2of3\''
'\'B3of3\'','\'B1of3\'','\'B1of3\'','\'B2of3\'','\'B2of3\''
'\'B2of3\'','\'B1of3\'','\'B1of3\'','\'B2of3\'','\'B1of3\''
'\'B2of3\'','\'B1of3\'','\'B1of3\'','\'B3of3\'','\'B1of3\''
'\'B2of3\'','\'B1of3\'','\'B1of3\'','\'B2of3\'','\'B1of3\''
'\'B1of3\'','\'B1of3\'','\'B1of3\'','\'B2of3\'','\'B1of3\''
'\'B3of3\'','\'B1of3\'','\'B1of3\'','\'B1of3\'','\'B1of3\''
'\'B2of3\'','\'B1of3\'','\'B1of3\'','\'B2of3\'','\'B1of3\''
'\'B1of3\'','\'B1of3\'','\'B1of3\'','\'B2of3\'','\'B1of3\''
'\'B2of3\'','\'B1of3\'','\'B1of3\'','\'B1of3\'','\'B1of3\''
'\'B2of3\'','\'B1of3\'','\'B1of3\'','\'B3of3\'','\'B1of3\''
'\'B2of3\'','\'B1of3\'','\'B1of3\'','\'B3of3\'','\'B1of3\''
'\'B2of3\'','\'B1of3\'','\'B1of3\'','\'B2of3\'','\'B1of3\''
'\'B2of3\'','\'B1of3\'','\'B1of3\'','\'B1of3\'','\'B1of3\''
'\'B2of3\'','\'B1of3\'','\'B1of3\'','\'B1of3\'','\'B1of3\''
'\'B2of3\'','\'B1of3\'','\'B1of3\'','\'B3of3\'','\'B1of3\''
'\'B1of3\'','\'B1of3\'','\'B1of3\'','\'B1of3\'','\'B1of3\''
'\'B3of3\'','\'B1of3\'','\'B1of3\'','\'B1of3\'','\'B1of3\''
'\'B2of3\'','\'B1of3\'','\'B1of3\'','\'B1of3\'','\'B1of3\''
'\'B2of3\'','\'B1of3\'','\'B1of3\'','\'B1of3\'','\'B1of3\''
'\'B2of3\'','\'B1of3\'','\'B1of3\'','\'B1of3\'','\'B1of3\''
'\'B1of3\'','\'B1of3\'','\'B1of3\'','\'B1of3\'','\'B1of3\''
'\'B1of3\'','\'B1of3\'','\'B1of3\'','\'B2of3\'','\'B1of3\''
'\'B2of3\'','\'B1of3\'','\'B1of3\'','\'B3of3\'','\'B1of3\''
'\'B3of3\'','\'B1of3\'','\'B1of3\'','\'B3of3\'','\'B1of3\''
'\'B3of3\'','\'B1of3\'','\'B1of3\'','\'B1of3\'','\'B1of3\''
'\'B3of3\'','\'B1of3\'','\'B1of3\'','\'B1of3\'','\'B1of3\''
'\'B2of3\'','\'B1of3\'','\'B1of3\'','\'B2of3\'','\'B1of3\''
'\'B3of3\'','\'B1of3\'','\'B1of3\'','\'B3of3\'','\'B1of3\''
'\'B1of3\'','\'B1of3\'','\'B1of3\'','\'B1of3\'','\'B1of3\''
'\'B2of3\'','\'B1of3\'','\'B1of3\'','\'B1of3\'','\'B1of3\''
'\'B2of3\'','\'B1of3\'','\'B1of3\'','\'B2of3\'','\'B1of3\''
'\'B3of3\'','\'B1of3\'','\'B1of3\'','\'B1of3\'','\'B3of3\''
'\'B3of3\'','\'B1of3\'','\'B1of3\'','\'B1of3\'','\'B3of3\''
'\'B1of3\'','\'B1of3\'','\'B1of3\'','\'B2of3\'','\'B1of3\''
'\'B1of3\'','\'B1of3\'','\'B1of3\'','\'B1of3\'','\'B1of3\''
'\'B3of3\'','\'B1of3\'','\'B1of3\'','\'B2of3\'','\'B2of3\''
'\'B2of3\'','\'B1of3\'','\'B1of3\'','\'B1of3\'','\'B2of3\''
'\'B2of3\'','\'B1of3\'','\'B1of3\'','\'B1of3\'','\'B3of3\''
'\'B3of3\'','\'B1of3\'','\'B1of3\'','\'B1of3\'','\'B2of3\''
'\'B1of3\'','\'B1of3\'','\'B1of3\'','\'B1of3\'','\'B3of3\''
'\'B2of3\'','\'B1of3\'','\'B1of3\'','\'B2of3\'','\'B3of3\''
'\'B2of3\'','\'B1of3\'','\'B1of3\'','\'B2of3\'','\'B1of3\''
'\'B2of3\'','\'B1of3\'','\'B1of3\'','\'B3of3\'','\'B1of3\''
'\'B2of3\'','\'B1of3\'','\'B1of3\'','\'B2of3\'','\'B1of3\''
'\'B2of3\'','\'B1of3\'','\'B1of3\'','\'B2of3\'','\'B1of3\''
'\'B2of3\'','\'B1of3\'','\'B1of3\'','\'B2of3\'','\'B3of3\''
'\'B2of3\'','\'B1of3\'','\'B1of3\'','\'B1of3\'','\'B1of3\''
'\'B3of3\'','\'B1of3\'','\'B1of3\'','\'B2of3\'','\'B3of3\''
'\'B3of3\'','\'B1of3\'','\'B1of3\'','\'B2of3\'','\'B3of3\''
'\'B2of3\'','\'B1of3\'','\'B1of3\'','\'B2of3\'','\'B3of3\''
'\'B3of3\'','\'B1of3\'','\'B1of3\'','\'B2of3\'','\'B2of3\''
'\'B3of3\'','\'B1of3\'','\'B1of3\'','\'B1of3\'','\'B1of3\''
'\'B2of3\'','\'B1of3\'','\'B1of3\'','\'B1of3\'','\'B2of3\''
'\'B3of3\'','\'B1of3\'','\'B1of3\'','\'B1of3\'','\'B2of3\''
'\'B1of3\'','\'B1of3\'','\'B1of3\'','\'B2of3\'','\'B1of3\''
'\'B2of3\'','\'B1of3\'','\'B1of3\'','\'B2of3\'','\'B2of3\''
'\'B2of3\'','\'B1of3\'','\'B1of3\'','\'B2of3\'','\'B1of3\''
'\'B2of3\'','\'B1of3\'','\'B1of3\'','\'B2of3\'','\'B3of3\''
'\'B1of3\'','\'B1of3\'','\'B1of3\'','\'B2of3\'','\'B1of3\''
'\'B1of3\'','\'B1of3\'','\'B1of3\'','\'B2of3\'','\'B3of3\''
'\'B2of3\'','\'B1of3\'','\'B1of3\'','\'B2of3\'','\'B1of3\''
'\'B2of3\'','\'B1of3\'','\'B1of3\'','\'B2of3\'','\'B2of3\''
'\'B2of3\'','\'B1of3\'','\'B1of3\'','\'B1of3\'','\'B2of3\''
'\'B2of3\'','\'B1of3\'','\'B1of3\'','\'B1of3\'','\'B3of3\''
'\'B1of3\'','\'B1of3\'','\'B1of3\'','\'B2of3\'','\'B1of3\''
'\'B1of3\'','\'B1of3\'','\'B1of3\'','\'B1of3\'','\'B3of3\''
'\'B2of3\'','\'B1of3\'','\'B1of3\'','\'B2of3\'','\'B3of3\''
'\'B2of3\'','\'B1of3\'','\'B1of3\'','\'B2of3\'','\'B1of3\''
'\'B2of3\'','\'B1of3\'','\'B1of3\'','\'B2of3\'','\'B2of3\''
'\'B1of3\'','\'B1of3\'','\'B1of3\'','\'B2of3\'','\'B1of3\''
'\'B2of3\'','\'B1of3\'','\'B1of3\'','\'B2of3\'','\'B3of3\''
'\'B2of3\'','\'B1of3\'','\'B1of3\'','\'B2of3\'','\'B1of3\''
'\'B2of3\'','\'B1of3\'','\'B1of3\'','\'B2of3\'','\'B3of3\''
'\'B2of3\'','\'B1of3\'','\'B1of3\'','\'B2of3\'','\'B1of3\''
'\'B2of3\'','\'B1of3\'','\'B1of3\'','\'B2of3\'','\'B2of3\''
'\'B2of3\'','\'B1of3\'','\'B1of3\'','\'B1of3\'','\'B2of3\''
'\'B2of3\'','\'B1of3\'','\'B1of3\'','\'B1of3\'','\'B3of3\''
'\'B1of3\'','\'B1of3\'','\'B1of3\'','\'B2of3\'','\'B1of3\''
'\'B2of3\'','\'B1of3\'','\'B1of3\'','\'B1of3\'','\'B3of3\''
'\'B2of3\'','\'B1of3\'','\'B1of3\'','\'B2of3\'','\'B3of3\''
'\'B2of3\'','\'B1of3\'','\'B1of3\'','\'B2of3\'','\'B1of3\''
'\'B2of3\'','\'B1of3\'','\'B1of3\'','\'B2of3\'','\'B2of3\''
'\'B1of3\'','\'B1of3\'','\'B1of3\'','\'B2of3\'','\'B1of3\''
'\'B2of3\'','\'B1of3\'','\'B1of3\'','\'B2of3\'','\'B3of3\''
'\'B2of3\'','\'B1of3\'','\'B1of3\'','\'B2of3\'','\'B1of3\''
'\'B3of3\'','\'B1of3\'','\'B1of3\'','\'B2of3\'','\'B3of3\''
'\'B2of3\'','\'B1of3\'','\'B1of3\'','\'B2of3\'','\'B1of3\''
'\'B3of3\'','\'B1of3\'','\'B1of3\'','\'B2of3\'','\'B2of3\''
'\'B2of3\'','\'B1of3\'','\'B1of3\'','\'B1of3\'','\'B2of3\''
'\'B3of3\'','\'B1of3\'','\'B1of3\'','\'B1of3\'','\'B3of3\''
'\'B2of3\'','\'B1of3\'','\'B1of3\'','\'B1of3\'','\'B1of3\''
'\'B2of3\'','\'B1of3\'','\'B1of3\'','\'B1of3\'','\'B3of3\''
'\'B2of3\'','\'B1of3\'','\'B1of3\'','\'B2of3\'','\'B3of3\''
'\'B1of3\'','\'B1of3\'','\'B1of3\'','\'B2of3\'','\'B1of3\''
'\'B2of3\'','\'B1of3\'','\'B1of3\'','\'B2of3\'','\'B2of3\''
'\'B2of3\'','\'B1of3\'','\'B1of3\'','\'B2of3\'','\'B1of3\''
'\'B3of3\'','\'B1of3\'','\'B1of3\'','\'B2of3\'','\'B3of3\''
'\'B1of3\'','\'B1of3\'','\'B1of3\'','\'B2of3\'','\'B1of3\''
'\'B2of3\'','\'B1of3\'','\'B1of3\'','\'B1of3\'','\'B3of3\''
'\'B2of3\'','\'B1of3\'','\'B1of3\'','\'B2of3\'','\'B1of3\''
'\'B2of3\'','\'B1of3\'','\'B1of3\'','\'B2of3\'','\'B2of3\''
'\'B2of3\'','\'B1of3\'','\'B1of3\'','\'B1of3\'','\'B2of3\''
'\'B1of3\'','\'B1of3\'','\'B1of3\'','\'B1of3\'','\'B3of3\''
'\'B1of3\'','\'B1of3\'','\'B1of3\'','\'B2of3\'','\'B1of3\''
'\'B2of3\'','\'B1of3\'','\'B1of3\'','\'B1of3\'','\'B3of3\''
'\'B2of3\'','\'B1of3\'','\'B1of3\'','\'B2of3\'','\'B3of3\''
'\'B1of3\'','\'B1of3\'','\'B1of3\'','\'B2of3\'','\'B1of3\''
'\'B2of3\'','\'B1of3\'','\'B1of3\'','\'B2of3\'','\'B1of3\''
'\'B1of3\'','\'B1of3\'','\'B1of3\'','\'B2of3\'','\'B1of3\''
'\'B1of3\'','\'B1of3\'','\'B1of3\'','\'B2of3\'','\'B1of3\''
'\'B1of3\'','\'B1of3\'','\'B1of3\'','\'B2of3\'','\'B1of3\''
'\'B2of3\'','\'B1of3\'','\'B1of3\'','\'B2of3\'','\'B1of3\''
'\'B2of3\'','\'B1of3\'','\'B1of3\'','\'B2of3\'','\'B2of3\''
'\'B1of3\'','\'B1of3\'','\'B1of3\'','\'B2of3\'','\'B2of3\''
'\'B1of3\'','\'B3of3\'','\'B1of3\'','\'B2of3\'','\'B3of3\''
'\'B1of3\'','\'B1of3\'','\'B1of3\'','\'B2of3\'','\'B2of3\''
'\'B1of3\'','\'B1of3\'','\'B1of3\'','\'B2of3\'','\'B1of3\''
'\'B1of3\'','\'B1of3\'','\'B1of3\'','\'B2of3\'','\'B1of3\''
'\'B1of3\'','\'B1of3\'','\'B1of3\'','\'B2of3\'','\'B1of3\''
'\'B1of3\'','\'B1of3\'','\'B1of3\'','\'B3of3\'','\'B2of3\''
'\'B2of3\'','\'B1of3\'','\'B1of3\'','\'B2of3\'','\'B2of3\''
'\'B1of3\'','\'B1of3\'','\'B1of3\'','\'B2of3\'','\'B1of3\''
'\'B2of3\'','\'B1of3\'','\'B1of3\'','\'B1of3\'','\'B1of3\''
'\'B2of3\'','\'B1of3\'','\'B1of3\'','\'B2of3\'','\'B1of3\''
'\'B1of3\'','\'B1of3\'','\'B1of3\'','\'B2of3\'','\'B2of3\''
'\'B2of3\'','\'B1of3\'','\'B1of3\'','\'B2of3\'','\'B1of3\''
'\'B2of3\'','\'B1of3\'','\'B1of3\'','\'B2of3\'','\'B1of3\''
'\'B2of3\'','\'B1of3\'','\'B1of3\'','\'B1of3\'','\'B1of3\''
'\'B1of3\'','\'B1of3\'','\'B1of3\'','\'B2of3\'','\'B1of3\''
'\'B2of3\'','\'B1of3\'','\'B1of3\'','\'B2of3\'','\'B1of3\''
'\'B2of3\'','\'B1of3\'','\'B1of3\'','\'B2of3\'','\'B2of3\''
'\'B1of3\'','\'B1of3\'','\'B1of3\'','\'B3of3\'','\'B2of3\''
'\'B1of3\'','\'B2of3\'','\'B1of3\'','\'B2of3\'','\'B3of3\''
'\'B1of3\'','\'B1of3\'','\'B1of3\'','\'B1of3\'','\'B2of3\''
'\'B1of3\'','\'B1of3\'','\'B1of3\'','\'B1of3\'','\'B1of3\''
'\'B1of3\'','\'B1of3\'','\'B1of3\'','\'B3of3\'','\'B1of3\''
'\'B1of3\'','\'B1of3\'','\'B1of3\'','\'B2of3\'','\'B1of3\''
'\'B1of3\'','\'B1of3\'','\'B1of3\'','\'B3of3\'','\'B2of3\''
'\'B2of3\'','\'B1of3\'','\'B1of3\'','\'B2of3\'','\'B2of3\''
'\'B1of3\'','\'B1of3\'','\'B1of3\'','\'B2of3\'','\'B1of3\''
'\'B2of3\'','\'B1of3\'','\'B1of3\'','\'B2of3\'','\'B1of3\''
'\'B2of3\'','\'B1of3\'','\'B1of3\'','\'B3of3\'','\'B1of3\''
'\'B1of3\'','\'B1of3\'','\'B1of3\'','\'B2of3\'','\'B2of3\''
