{
  "urn" : "local:stefano.balbi:alice.sandbox:bn.adult.salmon.simple",
  "version" : "0.0.1",
  "adapterType" : "weka",
  "localPath" : "im.alice.spain/resources/bn.adult.salmon.simple",
  "geometry" : "τ1(1){period=[1.59408E12 1.625616E12],tscope=1.0,ttype=LOGICAL,tunit=YEAR}S2(395,191){bbox=[-5.83291228170576 -2.8958369640590713 42.56036175315526 43.607180064961],proj=EPSG:4326,shape=00000000030000000100000005C01754E6F50973B1404547B9EF15DD94C0072AAC91F973FF404547B9EF15DD94C0072AAC91F973FF4045CDB8138CE534C01754E6F50973B14045CDB8138CE534C01754E6F50973B1404547B9EF15DD94}",
  "projectName" : "im.alice.spain",
  "localName" : "bn.adult.salmon.simple",
  "type" : "NUMBER",
  "resourceTimestamp" : 1594131136287,
  "metadata" : { },
  "parameters" : {
    "predicted.range" : "[0.0,18.0]",
    "predictor.stream_width.range" : "[0.0,22.5]",
    "predictor.water_temperature_during_summer.discretizer.file" : "d_water_temperature_during_summer5516097647055108875.bin",
    "predictor.stream_width.discretizer.cutpoints" : "[7.5, 15.0]",
    "predictor.width_of_habitat_region.discretizer.file" : "d_width_of_habitat_region5646224998868243485.bin",
    "submitNodata" : "true",
    "predictor.minimum_omass_to_water_volume_ratio.discretizer" : "weka.filters.unsupervised.attribute.Discretize",
    "classifier.file" : "classifier2710028811775710389.bin",
    "predictor.stream_width.discretizer.file" : "d_stream_width3549623260786113214.bin",
    "predictor.width_of_habitat_region.discretizer.options" : "-R 5  -B 3 -Y",
    "predictor.stream_width.discretizer.options" : "-R 4  -B 3 -Y",
    "predictor.width_of_habitat_region.range" : "[0.0,28500.0]",
    "instances.file.raw" : "rawinstances5960291975402382247.arff",
    "predictor.minimum_omass_to_water_volume_ratio.discretizer.file" : "d_minimum_omass_to_water_volume_ratio6826077545397369274.bin",
    "predicted.index" : "1",
    "predictor.stream_width.index" : "4",
    "classifier" : "weka.classifiers.bayes.BayesNet",
    "predicted.discretizer.options" : "-R 1  -B 3 -Y",
    "model" : "ml.fishbiomass.adult-salmonidae-biomass-within-reach-learner",
    "predictor.minimum_omass_to_water_volume_ratio.discretizer.options" : "-R 3  -B 3 -Y",
    "classifier.options" : " -Q weka.classifiers.bayes.net.search.local.K2 -- -P 1 -E weka.classifiers.bayes.net.estimate.SimpleEstimator -- -A 1.0",
    "predictor.water_temperature_during_summer.range" : "[5.0,23.0]",
    "predicted.discretizer" : "weka.filters.unsupervised.attribute.Discretize",
    "predicted.name" : "adult_salmonidae_biomass_of_reach",
    "predictor.minimum_omass_to_water_volume_ratio.discretizer.cutpoints" : "[5.0, 9.0]",
    "instances.file" : "instances8730612650887243613.arff",
    "predicted.discretizer.file" : "d_adult_salmonidae_biomass_of_reach5351902372035669615.bin",
    "predictor.minimum_omass_to_water_volume_ratio.index" : "3",
    "classifier.probabilistic" : "true",
    "predictor.water_temperature_during_summer.discretizer" : "weka.filters.unsupervised.attribute.Discretize",
    "predictor.water_temperature_during_summer.discretizer.cutpoints" : "[11.0, 17.0]",
    "predictor.width_of_habitat_region.discretizer" : "weka.filters.unsupervised.attribute.Discretize",
    "predictor.width_of_habitat_region.index" : "5",
    "predictor.water_temperature_during_summer.discretizer.options" : "-R 2  -B 3 -Y",
    "wekaVersion" : "3.8.3",
    "predictor.width_of_habitat_region.discretizer.cutpoints" : "[9500.0, 19000.0]",
    "predictor.stream_width.discretizer" : "weka.filters.unsupervised.attribute.Discretize",
    "predictor.minimum_omass_to_water_volume_ratio.range" : "[1.0,13.0]",
    "predicted.discretizer.cutpoints" : "[6.0, 12.0]",
    "predictor.water_temperature_during_summer.index" : "2"
  },
  "localPaths" : [ "im.alice.spain\\resources/bn.adult.salmon.simple/d_adult_salmonidae_biomass_of_reach5351902372035669615.bin", "im.alice.spain\\resources/bn.adult.salmon.simple/d_water_temperature_during_summer5516097647055108875.bin", "im.alice.spain\\resources/bn.adult.salmon.simple/d_minimum_omass_to_water_volume_ratio6826077545397369274.bin", "im.alice.spain\\resources/bn.adult.salmon.simple/d_stream_width3549623260786113214.bin", "im.alice.spain\\resources/bn.adult.salmon.simple/d_width_of_habitat_region5646224998868243485.bin", "im.alice.spain\\resources/bn.adult.salmon.simple/instances8730612650887243613.arff", "im.alice.spain\\resources/bn.adult.salmon.simple/rawinstances5960291975402382247.arff", "im.alice.spain\\resources/bn.adult.salmon.simple/classifier2710028811775710389.bin" ],
  "history" : [ ],
  "notifications" : [ ],
  "attributes" : [ ],
  "spatialExtent" : null,
  "dependencies" : [ {
    "name" : "water_temperature_during_summer",
    "type" : "NUMBER",
    "key" : true,
    "optional" : true,
    "exampleValue" : null
  }, {
    "name" : "minimum_omass_to_water_volume_ratio",
    "type" : "NUMBER",
    "key" : true,
    "optional" : true,
    "exampleValue" : null
  }, {
    "name" : "stream_width",
    "type" : "NUMBER",
    "key" : true,
    "optional" : true,
    "exampleValue" : null
  }, {
    "name" : "width_of_habitat_region",
    "type" : "NUMBER",
    "key" : true,
    "optional" : true,
    "exampleValue" : null
  } ],
  "outputs" : null,
  "exportFormats" : {
    "bif" : "BIF bayesian network (.bif)",
    "xdsl" : "GENIE bayesian network (.xdsl)",
    "arff" : "Training dataset (ARFF)",
    "arff#raw" : "Raw training dataset (ARFF)",
    "model" : "WEKA Classifier (.model)",
    "model#predicted" : "WEKA discretizer for the predicted variable (.model)",
    "model#water_temperature_during_summer" : "WEKA Discretizer for Water temperature during summer (.model)",
    "model#minimum_omass_to_water_volume_ratio" : "WEKA Discretizer for Minimum omass to water volume ratio (.model)",
    "model#stream_width" : "WEKA Discretizer for Stream width (.model)",
    "model#width_of_habitat_region" : "WEKA Discretizer for Width of habitat region (.model)"
  }
}