{
  "urn" : "local:amarquez:im.alice.france:fr_landcover_2050_desert_50m_wgs84",
  "version" : "0.0.1",
  "adapterType" : "raster",
  "localPath" : "im.alice.france/resources/fr_landcover_2050_desert_50m_wgs84.v0.0.1",
  "geometry" : "S2(1319,846){bbox=[-1.7575594431826127 -0.9910194535545384 48.19425360176402 48.68590851550575],proj=EPSG:4326}",
  "projectName" : "im.alice.france",
  "localName" : "fr_landcover_2050_desert_50m_wgs84.tif",
  "type" : "NUMBER",
  "resourceTimestamp" : 1604607805085,
  "metadata" : { },
  "parameters" : {
    "nodata" : "2.147483647E9"
  },
  "localPaths" : [ "im.alice.france/resources/fr_landcover_2050_desert_50m_wgs84.v0.0.1/fr_landcover_2050_desert_50m_wgs84.tif.ovr", "im.alice.france/resources/fr_landcover_2050_desert_50m_wgs84.v0.0.1/fr_landcover_2050_desert_50m_wgs84.tfw", "im.alice.france/resources/fr_landcover_2050_desert_50m_wgs84.v0.0.1/fr_landcover_2050_desert_50m_wgs84.tif", "im.alice.france/resources/fr_landcover_2050_desert_50m_wgs84.v0.0.1/fr_landcover_2050_desert_50m_wgs84.tif.aux.xml" ],
  "history" : [ ],
  "notifications" : [ ],
  "attributes" : [ ],
  "spatialExtent" : {
    "east" : -0.9910194535545384,
    "west" : -1.7575594431826127,
    "north" : 48.68590851550575,
    "south" : 48.19425360176402,
    "gridResolution" : null,
    "gridUnit" : null
  },
  "dependencies" : null,
  "outputs" : null,
  "exportFormats" : {
    "tiff" : "GeoTiff"
  }
}