{
  "urn" : "local:amarquez:im.alice.france:fr_landcover_2018detailed_50m_wgs84_cattle",
  "version" : "0.0.1",
  "adapterType" : "raster",
  "localPath" : "im.alice.france/resources/fr_landcover_2018detailed_50m_wgs84_cattle.v0.0.1",
  "geometry" : "S2(1319,846){bbox=[-1.757559443 -0.991019453 48.194253602 48.685908516],proj=EPSG:4326}",
  "projectName" : "im.alice.france",
  "localName" : "fr_landcover_2018detailed_50m_wgs84_cattle.tif",
  "type" : "NUMBER",
  "resourceTimestamp" : 1605781144503,
  "metadata" : { },
  "parameters" : {
    "nodata" : "-3.4E38"
  },
  "localPaths" : [ "im.alice.france/resources/fr_landcover_2018detailed_50m_wgs84_cattle.v0.0.1/fr_landcover_2018detailed_50m_wgs84_cattle.tif", "im.alice.france/resources/fr_landcover_2018detailed_50m_wgs84_cattle.v0.0.1/fr_landcover_2018detailed_50m_wgs84_cattle.tif.aux.xml" ],
  "history" : [ ],
  "notifications" : [ ],
  "attributes" : [ ],
  "spatialExtent" : {
    "east" : -0.991019453,
    "west" : -1.757559443,
    "north" : 48.685908516,
    "south" : 48.194253602,
    "gridResolution" : null,
    "gridUnit" : null
  },
  "dependencies" : null,
  "outputs" : null,
  "exportFormats" : {
    "tiff" : "GeoTiff"
  }
}