{
  "urn" : "local:stefano.balbi:im.alice.france:MN_mai_BAU",
  "version" : "0.0.1",
  "adapterType" : "raster",
  "localPath" : "im.alice.france/resources/MN_mai_BAU.v0.0.1",
  "geometry" : "S2(1376,844){bbox=[-1.6670302250063194 -1.0487075594084283 48.251320807702484 48.63058267526398],proj=EPSG:4326}",
  "projectName" : "im.alice.france",
  "localName" : "MN_mai_BAU.tif",
  "type" : "NUMBER",
  "resourceTimestamp" : 1606489413342,
  "metadata" : { },
  "parameters" : {
    "nodata" : "-1.7976931348623157E308"
  },
  "localPaths" : "im.alice.france/resources/MN_mai_BAU.v0.0.1/MN_mai_BAU.tif",
  "history" : [ ],
  "notifications" : [ ],
  "attributes" : [ ],
  "spatialExtent" : {
    "east" : -1.0487075594084283,
    "west" : -1.6670302250063194,
    "north" : 48.63058267526398,
    "south" : 48.251320807702484,
    "gridResolution" : null,
    "gridUnit" : null
  },
  "dependencies" : null,
  "outputs" : null,
  "exportFormats" : {
    "tiff" : "GeoTiff"
  }
}